{
    "diskguid": "00000000-0000-0000-0000-000000000000",
    "disksize": 128,
    "align": 1024,
    "iso9660": true,
    "config": "config",
    "initrd": { "type": "tar", "gzip": true, "directory": "boot" },
    "iso9660": 1,
    "partitions": [
        { "type": "fat32", "size": 16 }
    ]
}
